{"response":{"status":"ok","userTier":"developer","total":2075512,"startIndex":1,"pageSize":10,"currentPage":1,"pages":207552,"orderBy":"newest","results":[{"id":"politics/blog/live/2018/nov/19/brexit-theresa-may-no-confidence-cbi-corbyn-would-welcome-option-of-extending-transition-for-up-to-two-years-clark-says-politics-live","type":"liveblog","sectionId":"politics","sectionName":"Politics","webPublicationDate":"2018-11-19T17:19:11Z","webTitle":"Corbyn: government’s Brexit agreement ‘locks in uncertainty’ for four years or more - Politics live","webUrl":"https://www.theguardian.com/politics/blog/live/2018/nov/19/brexit-theresa-may-no-confidence-cbi-corbyn-would-welcome-option-of-extending-transition-for-up-to-two-years-clark-says-politics-live","apiUrl":"https://content.guardianapis.com/politics/blog/live/2018/nov/19/brexit-theresa-may-no-confidence-cbi-corbyn-would-welcome-option-of-extending-transition-for-up-to-two-years-clark-says-politics-live","isHosted":false,"pillarId":"pillar/news","pillarName":"News"},{"id":"us-news/live/2018/nov/19/white-house-jim-acosta-trump-latest-us-politics-live","type":"liveblog","sectionId":"us-news","sectionName":"US news","webPublicationDate":"2018-11-19T17:17:12Z","webTitle":"Donald Trump launches new attack on admiral who led Bin Laden raid – live","webUrl":"https://www.theguardian.com/us-news/live/2018/nov/19/white-house-jim-acosta-trump-latest-us-politics-live","apiUrl":"https://content.guardianapis.com/us-news/live/2018/nov/19/white-house-jim-acosta-trump-latest-us-politics-live","isHosted":false,"pillarId":"pillar/news","pillarName":"News"},{"id":"media/2018/nov/19/eric-clark-obituary","type":"article","sectionId":"media","sectionName":"Media","webPublicationDate":"2018-11-19T17:13:31Z","webTitle":"Eric Clark obituary","webUrl":"https://www.theguardian.com/media/2018/nov/19/eric-clark-obituary","apiUrl":"https://content.guardianapis.com/media/2018/nov/19/eric-clark-obituary","isHosted":false,"pillarId":"pillar/news","pillarName":"News"},{"id":"politics/2018/nov/19/theresa-may-pm-tells-cbi-brexit-deal-will-set-uk-on-path-to-prosperity","type":"article","sectionId":"politics","sectionName":"Politics","webPublicationDate":"2018-11-19T17:08:43Z","webTitle":"PM tells CBI: Brexit deal will set UK on path to prosperity","webUrl":"https://www.theguardian.com/politics/2018/nov/19/theresa-may-pm-tells-cbi-brexit-deal-will-set-uk-on-path-to-prosperity","apiUrl":"https://content.guardianapis.com/politics/2018/nov/19/theresa-may-pm-tells-cbi-brexit-deal-will-set-uk-on-path-to-prosperity","isHosted":false,"pillarId":"pillar/news","pillarName":"News"},{"id":"football/2018/nov/19/harry-kane-best-goalscorer-world-england-gareth-southgate","type":"article","sectionId":"football","sectionName":"Football","webPublicationDate":"2018-11-19T17:07:31Z","webTitle":"Harry Kane: probably not best in the world, but perfect for this England team | Barney Ronay","webUrl":"https://www.theguardian.com/football/2018/nov/19/harry-kane-best-goalscorer-world-england-gareth-southgate","apiUrl":"https://content.guardianapis.com/football/2018/nov/19/harry-kane-best-goalscorer-world-england-gareth-southgate","isHosted":false,"pillarId":"pillar/sport","pillarName":"Sport"},{"id":"commentisfree/2018/nov/19/dont-blame-irish-brexit-chaos-england-nationalism","type":"article","sectionId":"commentisfree","sectionName":"Opinion","webPublicationDate":"2018-11-19T17:03:17Z","webTitle":"Don’t blame the Irish: the Brexit chaos is all about England | Fintan O’Toole","webUrl":"https://www.theguardian.com/commentisfree/2018/nov/19/dont-blame-irish-brexit-chaos-england-nationalism","apiUrl":"https://content.guardianapis.com/commentisfree/2018/nov/19/dont-blame-irish-brexit-chaos-england-nationalism","isHosted":false,"pillarId":"pillar/opinion","pillarName":"Opinion"},{"id":"sport/live/2018/nov/19/magnus-carlsen-v-fabiano-caruana-world-chess-championship-game-8-live","type":"liveblog","sectionId":"sport","sectionName":"Sport","webPublicationDate":"2018-11-19T17:02:58Z","webTitle":"Magnus Carlsen v Fabiano Caruana: World Chess Championship, Game 8 – live!","webUrl":"https://www.theguardian.com/sport/live/2018/nov/19/magnus-carlsen-v-fabiano-caruana-world-chess-championship-game-8-live","apiUrl":"https://content.guardianapis.com/sport/live/2018/nov/19/magnus-carlsen-v-fabiano-caruana-world-chess-championship-game-8-live","isHosted":false,"pillarId":"pillar/sport","pillarName":"Sport"},{"id":"business/grogonomics/2018/nov/20/the-economy-is-ticking-along-in-all-states-but-households-dont-benefit","type":"article","sectionId":"business","sectionName":"Business","webPublicationDate":"2018-11-19T17:00:39Z","webTitle":"The economy is ticking along in all states but households don't benefit | Greg Jericho","webUrl":"https://www.theguardian.com/business/grogonomics/2018/nov/20/the-economy-is-ticking-along-in-all-states-but-households-dont-benefit","apiUrl":"https://content.guardianapis.com/business/grogonomics/2018/nov/20/the-economy-is-ticking-along-in-all-states-but-households-dont-benefit","isHosted":false,"pillarId":"pillar/news","pillarName":"News"},{"id":"australia-news/2018/nov/20/greens-mp-demands-answers-on-racist-and-sexist-facebook-posts-by-police","type":"article","sectionId":"australia-news","sectionName":"Australia news","webPublicationDate":"2018-11-19T17:00:39Z","webTitle":"Greens MP demands answers on racist and sexist Facebook posts by police","webUrl":"https://www.theguardian.com/australia-news/2018/nov/20/greens-mp-demands-answers-on-racist-and-sexist-facebook-posts-by-police","apiUrl":"https://content.guardianapis.com/australia-news/2018/nov/20/greens-mp-demands-answers-on-racist-and-sexist-facebook-posts-by-police","isHosted":false,"pillarId":"pillar/news","pillarName":"News"},{"id":"environment/2018/nov/20/importing-gas-to-replace-domestic-supply-could-push-emissions-up-20-agl-says","type":"article","sectionId":"environment","sectionName":"Environment","webPublicationDate":"2018-11-19T17:00:37Z","webTitle":"Importing gas to replace domestic supply could push emissions up 20%, AGL says","webUrl":"https://www.theguardian.com/environment/2018/nov/20/importing-gas-to-replace-domestic-supply-could-push-emissions-up-20-agl-says","apiUrl":"https://content.guardianapis.com/environment/2018/nov/20/importing-gas-to-replace-domestic-supply-could-push-emissions-up-20-agl-says","isHosted":false,"pillarId":"pillar/news","pillarName":"News"}]}}